<?xml version="1.0" encoding="UTF-8" standalone="no"?>
<!-- Created with Inkscape (http://www.inkscape.org/) -->

<svg
   width="310"
   height="310"
   id="svg2"
   version="1.1"
   inkscape:version="1.2.2 (b0a8486541, 2022-12-01)"
   sodipodi:docname="hamburger.svg"
   inkscape:export-filename="hamburger.png"
   inkscape:export-xdpi="39.63871"
   inkscape:export-ydpi="39.63871"
   xmlns:inkscape="http://www.inkscape.org/namespaces/inkscape"
   xmlns:sodipodi="http://sodipodi.sourceforge.net/DTD/sodipodi-0.dtd"
   xmlns="http://www.w3.org/2000/svg"
   xmlns:svg="http://www.w3.org/2000/svg"
   xmlns:rdf="http://www.w3.org/1999/02/22-rdf-syntax-ns#"
   xmlns:cc="http://creativecommons.org/ns#"
   xmlns:dc="http://purl.org/dc/elements/1.1/">
  <title
     id="title3842">Hamburger (Menu) Icon</title>
  <defs
     id="defs4" />
  <sodipodi:namedview
     id="base"
     pagecolor="#ffffff"
     bordercolor="#666666"
     borderopacity="1.0"
     inkscape:pageopacity="0.0"
     inkscape:pageshadow="2"
     inkscape:zoom="1.08"
     inkscape:cx="251.38889"
     inkscape:cy="116.2037"
     inkscape:document-units="px"
     inkscape:current-layer="layer1"
     showgrid="false"
     showborder="true"
     inkscape:showpageshadow="false"
     fit-margin-top="5"
     fit-margin-right="5"
     fit-margin-bottom="5"
     fit-margin-left="5"
     inkscape:window-width="1378"
     inkscape:window-height="882"
     inkscape:window-x="208"
     inkscape:window-y="58"
     inkscape:window-maximized="0"
     inkscape:pagecheckerboard="0"
     inkscape:deskcolor="#d1d1d1" />
  <metadata
     id="metadata7">
    <rdf:RDF>
      <cc:Work
         rdf:about="">
        <dc:format>image/svg+xml</dc:format>
        <dc:type
           rdf:resource="http://purl.org/dc/dcmitype/StillImage" />
        <dc:title>Hamburger (Menu) Icon</dc:title>
        <dc:date>2015-06-29</dc:date>
        <dc:creator>
          <cc:Agent>
            <dc:title>Daniel Fowler</dc:title>
          </cc:Agent>
        </dc:creator>
        <dc:rights>
          <cc:Agent>
            <dc:title>Public Domain</dc:title>
          </cc:Agent>
        </dc:rights>
        <dc:publisher>
          <cc:Agent>
            <dc:title>openclipart.org</dc:title>
          </cc:Agent>
        </dc:publisher>
        <dc:language>en-GB</dc:language>
        <dc:subject>
          <rdf:Bag>
            <rdf:li>icon</rdf:li>
            <rdf:li>menu</rdf:li>
            <rdf:li>hamburger</rdf:li>
            <rdf:li>basic</rdf:li>
            <rdf:li>simple</rdf:li>
            <rdf:li>black</rdf:li>
            <rdf:li>white</rdf:li>
            <rdf:li>lines</rdf:li>
            <rdf:li>rounded</rdf:li>
            <rdf:li>open</rdf:li>
            <rdf:li>close</rdf:li>
            <rdf:li>norm</rdf:li>
            <rdf:li>cox</rdf:li>
            <rdf:li>star</rdf:li>
            <rdf:li>xerox</rdf:li>
          </rdf:Bag>
        </dc:subject>
        <cc:license
           rdf:resource="http://creativecommons.org/publicdomain/zero/1.0/" />
        <dc:description>A simple and basic hamburger (menu) icon. It originates from Xerox &quot;Star&quot; workstations of the 1980's but is now popular to hide/show menus on mobile devices.</dc:description>
        <dc:contributor>
          <cc:Agent>
            <dc:title>Norm Cox</dc:title>
          </cc:Agent>
        </dc:contributor>
      </cc:Work>
      <cc:License
         rdf:about="http://creativecommons.org/publicdomain/zero/1.0/">
        <cc:permits
           rdf:resource="http://creativecommons.org/ns#Reproduction" />
        <cc:permits
           rdf:resource="http://creativecommons.org/ns#Distribution" />
        <cc:permits
           rdf:resource="http://creativecommons.org/ns#DerivativeWorks" />
      </cc:License>
    </rdf:RDF>
  </metadata>
  <g
     inkscape:label="Layer 1"
     inkscape:groupmode="layer"
     id="layer1"
     transform="translate(10.015625,-803.03125)">
    <g
       id="g3837"
       style="fill:#ffffff;stroke:#ffffff"
       transform="matrix(0.92672085,0,0,0.92672085,9.633604,93.211446)">
      <path
         inkscape:connector-curvature="0"
         id="path3785-0"
         d="M 19.668179,1032.694 H 270.31428 v 0"
         style="fill:#ffffff;stroke:#ffffff;stroke-width:49.3364;stroke-linecap:round;stroke-linejoin:miter;stroke-miterlimit:4;stroke-dasharray:none;stroke-opacity:1" />
      <path
         inkscape:connector-curvature="0"
         id="path3785-0-9"
         d="M 19.668179,932.694 H 270.31428 v 0"
         style="fill:#ffffff;stroke:#ffffff;stroke-width:49.3364;stroke-linecap:round;stroke-linejoin:miter;stroke-miterlimit:4;stroke-dasharray:none;stroke-opacity:1" />
      <path
         inkscape:connector-curvature="0"
         id="path3785-0-4"
         d="M 19.668179,832.694 H 270.31428 v 0"
         style="fill:#ffffff;stroke:#ffffff;stroke-width:49.3364;stroke-linecap:round;stroke-linejoin:miter;stroke-miterlimit:4;stroke-dasharray:none;stroke-opacity:1" />
    </g>
  </g>
</svg>
